BUS 317 - Final Project
…
# Create summary performance evaluation dataframes
if (i == begin) {
  summary_train_knn_fit <- train_knn_fit
  summary_test_knn_fit <-  test_knn_fit
} else {
  summary_train_knn_fit <- bind_rows(summary_train_knn_fit, train_knn_fit)
  summary_test_knn_fit <- bind_rows(summary_test_knn_fit, test_knn_fit)
  }
}

summary_train_knn_fit

## # A tibble: 22 x 4
##    .metric  .estimator .estimate     k
##    <chr>    <chr>          <dbl> <dbl>
##  1 accuracy multiclass     0.941     3
##  2 kap      multiclass     0.921     3
##  3 accuracy multiclass     0.942     5
##  4 kap      multiclass     0.922     5
##  5 accuracy multiclass     0.848     7
##  6 kap      multiclass     0.797     7
##  7 accuracy multiclass     0.790     9
##  8 kap      multiclass     0.718     9
##  9 accuracy multiclass     0.749    11
## 10 kap      multiclass     0.664    11
## # … with 12 more rows
…
